Service is started at 02-12-2019 14:25:27
Service is recall at 02-12-2019 14:25:32
Service is recall at 02-12-2019 14:25:37
Service is recall at 02-12-2019 14:25:42
Service is recall at 02-12-2019 14:25:47
Service is recall at 02-12-2019 14:25:52
Service is recall at 02-12-2019 14:25:57
Service is recall at 02-12-2019 14:26:02
Service is recall at 02-12-2019 14:26:07
Service is recall at 02-12-2019 14:26:12
Service is recall at 02-12-2019 14:26:17
Service is recall at 02-12-2019 14:26:22
Service is recall at 02-12-2019 14:26:27
Service is recall at 02-12-2019 14:26:32
Service is recall at 02-12-2019 14:26:37
Service is recall at 02-12-2019 14:26:42
Service is recall at 02-12-2019 14:26:47
Service is stopped at 02-12-2019 14:26:48
